[
	{
		"lat": "-16.63619187839765",
		"lon": "-22.060546874999996",
		"zoom": "4",
		"marker": [
			{
				"lat": "-3.162455530237848",
				"lon": "-41.66015625"
			},
			{
				"lat": "-4.477856485570586",
				"lon": "-38.67187499999999"
			},
			{
				"lat": "-5.44102230371796",
				"lon": "-35.595703125"
			},
			{
				"lat": "-14.00869637063467",
				"lon": "-39.0234375"
			},
			{
				"lat": "-20.055931265194438",
				"lon": "-40.078125"
			},
			{
				"lat": "-22.836945920943844",
				"lon": "-42.451171875"
			},
			{
				"lat": "-23.88583769986199",
				"lon": "-45.966796875"
			},
			{
				"lat": "-27.761329874505233",
				"lon": "-48.603515625"
			}
		]
	}
]
