<?xml version="1.0" encoding="utf-8"?>
<!-- Generator: Adobe Illustrator 16.0.0, SVG Export Plug-In . SVG Version: 6.00 Build 0)  -->
<!DOCTYPE svg PUBLIC "-//W3C//DTD SVG 1.1//EN" "http://www.w3.org/Graphics/SVG/1.1/DTD/svg11.dtd">
<svg version="1.1" id="Layer_1" xmlns="http://www.w3.org/2000/svg" xmlns:xlink="http://www.w3.org/1999/xlink" x="0px" y="0px"
	 width="593.5px" height="445.125px" viewBox="9.25 155.5 593.5 445.125" enable-background="new 9.25 155.5 593.5 445.125"
	 xml:space="preserve">
<path fill="#7FC241" d="M503.756,155.5l98.994,98.994L256.619,600.625L9.25,353.256l98.994-98.994l148.375,148.375L503.756,155.5z"
	/>
</svg>
