<?xml version="1.0" encoding="utf-8"?>
<!-- Generator: Adobe Illustrator 18.1.0, SVG Export Plug-In . SVG Version: 6.00 Build 0)  -->
<svg version="1.1" id="Layer_1" xmlns="http://www.w3.org/2000/svg" xmlns:xlink="http://www.w3.org/1999/xlink" x="0px" y="0px"
	 viewBox="0 0 256 256" enable-background="new 0 0 256 256" xml:space="preserve">
<path fill="#231F20" d="M216.7,233c-1.5,5.6-5,10.3-9.8,13.2l0,0c-33.1,19.9-75,8.1-93.8-26.3L48.4,101c-9-16.5-11.3-36.1-6.4-54.6
	C46.8,28,58.5,12.3,74.3,2.8l0,0c10-6,22.7-2.5,28.4,8l23.6,43.4c5.7,10.4,2.2,23.7-7.9,29.8l-11.1,6.7l44.2,81.1l11.1-6.7
	c10-6,22.7-2.5,28.4,8l23.6,43.4C217.5,221.4,218.2,227.4,216.7,233z"/>
</svg>
