<?xml version="1.0" encoding="utf-8"?>
<!-- Generator: Adobe Illustrator 16.0.0, SVG Export Plug-In . SVG Version: 6.00 Build 0)  -->
<!DOCTYPE svg PUBLIC "-//W3C//DTD SVG 1.1//EN" "http://www.w3.org/Graphics/SVG/1.1/DTD/svg11.dtd">
<svg version="1.1" id="Layer_1" xmlns="http://www.w3.org/2000/svg" xmlns:xlink="http://www.w3.org/1999/xlink" x="0px" y="0px"
	 width="612px" height="792px" viewBox="0 0 612 792" enable-background="new 0 0 612 792" xml:space="preserve">
<path fill="#ACD9F8" d="M306,95.5C140.021,95.5,5.5,230.021,5.5,396S140.021,696.5,306,696.5c165.979,0,300.5-134.521,300.5-300.5
	S471.979,95.5,306,95.5z M387.042,394.805h-53.071c0,84.628,0,188.859,0,188.859h-78.652c0,0,0-103.275,0-188.859h-37.294v-66.698
	h37.294v-43.271c0-30.839,14.583-79.13,79.369-79.13l58.092,0.239v64.786c0,0-35.381,0-42.313,0s-16.734,3.347-16.734,18.169v39.206
	h59.766L387.042,394.805z"/>
</svg>
