<?xml version="1.0" encoding="utf-8"?>
<!-- Generator: Adobe Illustrator 16.0.0, SVG Export Plug-In . SVG Version: 6.00 Build 0)  -->
<!DOCTYPE svg PUBLIC "-//W3C//DTD SVG 1.1//EN" "http://www.w3.org/Graphics/SVG/1.1/DTD/svg11.dtd">
<svg version="1.1" id="Layer_1" xmlns="http://www.w3.org/2000/svg" xmlns:xlink="http://www.w3.org/1999/xlink" x="0px" y="0px"
	 width="612px" height="792px" viewBox="0 0 612 792" enable-background="new 0 0 612 792" xml:space="preserve">
<g>
	<g>
		<path fill="#329EC6" d="M472.865,436.88h83.911v-55.941h-83.911V436.88L472.865,436.88z M234.759,296.789
			c38.728,0,70.045-31.317,70.045-70.045s-31.317-70.045-70.045-70.045s-70.045,31.557-70.045,70.045
			C164.714,265.472,196.031,296.789,234.759,296.789z M220.894,212.878h27.971v27.971h-27.971V212.878z M332.775,212.878v55.941
			h224.001v-55.941H332.775z M374.85,464.85c38.729,0,70.046-31.316,70.046-70.045c0-38.728-31.317-70.045-70.046-70.045
			c-38.728,0-70.045,31.317-70.045,70.045C304.805,433.533,336.122,464.85,374.85,464.85z M360.745,380.7h27.971v27.97h-27.971
			V380.7z M276.834,604.701h279.942v-55.94H276.834V604.701z M178.819,492.82c-38.728,0-70.045,31.317-70.045,70.045
			c0,38.729,31.317,70.046,70.045,70.046s70.045-31.317,70.045-70.046C248.864,524.138,217.547,492.82,178.819,492.82z
			 M192.923,576.731h-28.209v-27.971h27.971v27.971H192.923z M52.833,604.701h27.97v-55.94h-27.97V604.701z M276.834,380.7H52.833
			v55.94h224.001V380.7L276.834,380.7z M136.744,212.878H52.833v55.941h83.911V212.878L136.744,212.878z"/>
	</g>
</g>
</svg>
