<?xml version="1.0" encoding="utf-8"?>
<!-- Generator: Adobe Illustrator 16.0.0, SVG Export Plug-In . SVG Version: 6.00 Build 0)  -->
<!DOCTYPE svg PUBLIC "-//W3C//DTD SVG 1.1//EN" "http://www.w3.org/Graphics/SVG/1.1/DTD/svg11.dtd">
<svg version="1.1" id="Layer_1" xmlns="http://www.w3.org/2000/svg" xmlns:xlink="http://www.w3.org/1999/xlink" x="0px" y="0px"
	 width="612px" height="792px" viewBox="0 0 612 792" enable-background="new 0 0 612 792" xml:space="preserve">
<path fill="#78E7EE" d="M606,394c0,165.703-134.297,300-300,300S6,559.703,6,394S140.297,94,306,94S606,228.297,606,394z
	 M172.172,533.688c55.781,22.5,127.031,7.266,162.656-45.47c23.438-33.281,28.594-75.938,25.781-116.016
	c-45.471-0.469-91.172-0.234-136.642-0.234c0,17.109,0,34.219,0,51.093c27.188,0.938,54.61,0.472,81.797,0.938
	c-11.953,63.515-94.219,83.907-137.579,42.656c-44.765-36.328-42.656-116.016,3.985-149.766
	c32.579-27.188,78.75-20.391,111.094,3.047c12.655-12.422,24.609-25.781,36.328-39.375c-26.953-22.734-60.234-38.672-95.391-37.031
	c-73.594-2.578-141.328,65.156-142.5,142.5C76.781,449.312,116.156,511.188,172.172,533.688z M448.969,371.734
	c-13.594,0-27.188,0.234-40.779,0.234c0,14.297,0,28.359,0,42.656c13.592,0.234,27.187,0.234,40.779,0.469
	c0.235,14.298,0.235,28.595,0.235,42.892c13.592,0,27.187,0,40.78,0c0-14.297,0.234-28.594,0.234-42.892
	c13.592-0.233,27.188-0.233,40.78-0.469c0-14.297,0-28.359,0-42.656c-13.594-0.234-27.188-0.234-40.78-0.234
	c-0.234-14.297-0.234-28.594-0.234-42.891c-13.595,0-27.188,0-40.548,0C449.204,343.141,448.969,357.438,448.969,371.734z"/>
</svg>
