<?xml version="1.0" encoding="utf-8"?>
<!-- Generator: Adobe Illustrator 16.0.0, SVG Export Plug-In . SVG Version: 6.00 Build 0)  -->
<!DOCTYPE svg PUBLIC "-//W3C//DTD SVG 1.0//EN" "http://www.w3.org/TR/2001/REC-SVG-20010904/DTD/svg10.dtd">
<svg version="1.0" id="Layer_1" xmlns="http://www.w3.org/2000/svg" xmlns:xlink="http://www.w3.org/1999/xlink" x="0px" y="0px"
	 width="61.667px" height="67.333px" viewBox="0 0 61.667 67.333" enable-background="new 0 0 61.667 67.333" xml:space="preserve">
<path fill-rule="evenodd" clip-rule="evenodd" fill="none" stroke="#008f4c" stroke-width="1.4" stroke-miterlimit="10" d="
	M35.413,32.218l2.978,0.992l0.993-2.978"/>
<path fill-rule="evenodd" clip-rule="evenodd" fill="none" stroke="#008f4c" stroke-width="2" stroke-miterlimit="10" d="
	M30.834,39.66c-3.858,0-6.985-3.111-6.985-6.949s3.127-6.948,6.985-6.948c3.856,0,6.983,3.11,6.983,6.948"/>
</svg>
