<?xml version="1.0" encoding="utf-8"?>
<!-- Generator: Adobe Illustrator 16.0.0, SVG Export Plug-In . SVG Version: 6.00 Build 0)  -->
<!DOCTYPE svg PUBLIC "-//W3C//DTD SVG 1.1//EN" "http://www.w3.org/Graphics/SVG/1.1/DTD/svg11.dtd">
<svg version="1.1" id="Layer_1" xmlns="http://www.w3.org/2000/svg" xmlns:xlink="http://www.w3.org/1999/xlink" x="0px" y="0px"
	 width="612px" height="792px" viewBox="0 0 612 792" enable-background="new 0 0 612 792" xml:space="preserve">
<g>
	<circle fill="#5B5B5B" cx="304.087" cy="180.126" r="91.561"/>
	<path fill="#5B5B5B" d="M570.643,478.955c-10.28,10.279-23.906,16.017-38.012,16.017c-14.104,0-27.492-5.737-38.011-16.017
		c-14.583-14.583-33.469-22.473-53.55-22.473c-17.451,0-34.186,6.216-48.052,17.452c0.479-33.469,13.627-65.981,37.533-91.322
		L586.42,226.744c8.129-8.128,12.671-18.886,12.671-30.6c0-11.475-4.542-22.472-12.671-30.6c-8.128-8.128-18.886-12.67-30.6-12.67
		c-11.475,0-22.472,4.542-30.6,12.67L396.844,293.92c-14.104,14.104-30.122,22.233-42.314,27.731
		c-16.495,6.694-33.229,9.802-50.681,9.802c-16.734,0-34.903-3.586-50.682-9.802c-14.344-6.455-28.926-16.017-42.314-27.731
		L82.477,165.544c-8.128-8.128-18.886-12.67-30.6-12.67c-11.475,0-22.472,4.542-30.6,12.67c-8.128,8.128-12.67,18.886-12.67,30.6
		c0,11.475,4.542,22.472,12.67,30.6l155.869,155.869c23.428,23.429,36.337,53.789,37.533,88.214
		c-3.586,2.391-6.933,5.26-10.041,8.367c-10.28,10.28-23.906,16.018-38.011,16.018c-14.104,0-27.492-5.737-38.011-16.018
		c-14.583-14.582-33.469-22.472-53.55-22.472c-20.081,0-39.206,7.89-53.55,22.472c-2.151,2.152-3.347,5.021-3.347,7.89
		c0,2.868,1.195,5.737,3.347,7.889c4.303,4.304,11.475,4.304,15.778,0c10.279-10.279,23.906-16.017,38.011-16.017
		s27.492,5.737,38.011,16.017c14.583,14.583,33.469,22.472,53.55,22.472c20.081,0,39.206-7.889,53.55-22.472
		c10.28-10.279,23.906-16.017,38.011-16.017c14.104,0,27.492,5.737,38.011,16.017c14.583,14.583,33.469,22.472,53.55,22.472
		s39.206-7.889,53.55-22.472c10.28-10.279,23.906-16.017,38.012-16.017c14.104,0,27.492,5.737,38.011,16.017
		c14.583,14.583,33.469,22.472,53.55,22.472s39.206-7.889,53.55-22.472c2.151-2.151,3.347-5.021,3.347-7.889
		c0-2.869-1.195-5.737-3.347-7.89C582.117,474.651,575.185,474.651,570.643,478.955z"/>
	<path fill="#5B5B5B" d="M441.31,548.044c-20.081,0-39.206,7.889-53.55,22.472c-10.28,10.279-23.906,16.018-38.012,16.018
		c-14.104,0-27.492-5.738-38.011-16.018c-14.583-14.583-33.469-22.472-53.55-22.472s-39.206,7.889-53.55,22.472
		c-10.28,10.279-23.906,16.018-38.011,16.018c-14.104,0-27.492-5.738-38.011-16.018c-4.303-4.303-11.475-4.303-15.778,0
		c-2.151,2.151-3.347,5.021-3.347,7.889c0,2.869,1.195,5.738,3.347,7.89c14.583,14.583,33.469,22.472,53.55,22.472
		c20.081,0,39.206-7.889,53.55-22.472c10.28-10.28,23.906-16.018,38.011-16.018c14.105,0,27.492,5.737,38.011,16.018
		c14.583,14.583,33.468,22.472,53.55,22.472c20.081,0,39.206-7.889,53.55-22.472c10.279-10.28,23.906-16.018,38.011-16.018
		s27.492,5.737,38.011,16.018c4.304,4.303,11.476,4.303,15.778,0c2.151-2.151,3.347-5.021,3.347-7.89
		c0-2.868-1.195-5.737-3.347-7.889C480.276,555.933,461.391,548.044,441.31,548.044z"/>
	<path fill="#5B5B5B" d="M387.76,660.403c-10.28,10.279-23.906,16.017-38.012,16.017c-14.104,0-27.492-5.737-38.011-16.017
		c-14.583-14.583-33.469-22.472-53.55-22.472s-39.206,7.889-53.55,22.472c-2.152,2.151-3.347,5.021-3.347,7.889
		c0,2.869,1.195,5.737,3.347,7.89c4.303,4.303,11.475,4.303,15.778,0c10.28-10.28,23.906-16.018,38.011-16.018
		c14.104,0,27.492,5.737,38.011,16.018c14.583,14.582,33.469,22.472,53.55,22.472s39.206-7.89,53.55-22.472
		c2.152-2.152,3.348-5.021,3.348-7.89c0-2.868-1.195-5.737-3.348-7.889C398.995,656.1,392.062,656.1,387.76,660.403z"/>
</g>
</svg>
