<?xml version="1.0" encoding="utf-8"?>
<!-- Generator: Adobe Illustrator 16.0.0, SVG Export Plug-In . SVG Version: 6.00 Build 0)  -->
<!DOCTYPE svg PUBLIC "-//W3C//DTD SVG 1.1//EN" "http://www.w3.org/Graphics/SVG/1.1/DTD/svg11.dtd">
<svg version="1.1" id="Layer_1" xmlns="http://www.w3.org/2000/svg" xmlns:xlink="http://www.w3.org/1999/xlink" x="0px" y="0px"
	 width="612px" height="792px" viewBox="0 0 612 792" enable-background="new 0 0 612 792" xml:space="preserve">
<path fill="#78E7EE" d="M306,440.136c24.416,0,44.136-19.72,44.136-44.136s-19.72-44.135-44.136-44.135s-44.136,19.72-44.136,44.135
	C261.864,420.416,281.584,440.136,306,440.136z M401.08,311.014c13.382,0,23.946-10.798,23.946-23.945
	c0-13.382-10.801-23.946-23.946-23.946c-13.146,0-23.946,10.799-23.946,23.946S387.934,311.014,401.08,311.014z M394.271,396
	c0,48.597-39.44,88.271-88.271,88.271s-88.272-39.44-88.272-88.271c0-10.33,1.878-19.955,5.165-29.346h-42.728V486.15
	c0,20.658,16.903,37.562,37.562,37.562h170.206c20.659,0,37.562-16.903,37.562-37.562V329.092h-61.979
	C382.299,345.291,394.271,369.237,394.271,396z M306,95.5C140.021,95.5,5.5,230.02,5.5,396c0,165.979,134.521,300.5,300.5,300.5
	c165.979,0,300.5-134.521,300.5-300.5C606.5,230.02,471.979,95.5,306,95.5z M466.345,517.844c0,27.467-22.537,50.005-50.005,50.005
	H189.321c-27.467,0-50.005-22.538-50.005-50.005V290.826c0-27.468,22.538-50.006,50.005-50.006H416.34
	c27.468,0,50.005,22.538,50.005,50.006V517.844L466.345,517.844z"/>
</svg>
