<?xml version="1.0" encoding="utf-8"?>
<!-- Generator: Adobe Illustrator 16.0.0, SVG Export Plug-In . SVG Version: 6.00 Build 0)  -->
<!DOCTYPE svg PUBLIC "-//W3C//DTD SVG 1.0//EN" "http://www.w3.org/TR/2001/REC-SVG-20010904/DTD/svg10.dtd">
<svg version="1.0" id="Layer_1" xmlns="http://www.w3.org/2000/svg" xmlns:xlink="http://www.w3.org/1999/xlink" x="0px" y="0px"
	 width="612px" height="792px" viewBox="0 0 612 792" enable-background="new 0 0 612 792" xml:space="preserve">
<path fill="#5B5B5B" d="M558.45,186.342l-25.58-1.673c-1.673,0-3.347,0.239-4.781,1.195l-33.229,20.32
	c-2.869,1.673-6.693,1.673-9.323-0.479l-33.229-24.862c-1.435-0.956-2.869-1.673-4.543-1.673l-36.576-2.391
	c-1.674,0-3.347,0.239-4.781,1.195l-32.99,20.32c-2.869,1.673-6.455,1.673-9.324-0.478l-33.946-24.863
	c-1.195-0.956-2.869-1.434-4.542-1.673l-53.072-3.347c-23.189-45.9-70.523-77.695-124.552-77.935
	C72.436,89.761,12.192,151.439,13.866,227.939C15.3,304.2,77.935,366.356,153.478,366.595c6.933,0,14.105-0.717,20.798-1.673
	l11.236,17.212l-19.842,12.91c-8.606,5.737-13.626,15.778-13.148,26.297l2.629,53.789c0.239,5.498,2.152,10.758,5.021,15.539
	l128.376,196.987c9.084,14.104,27.731,18.646,41.597,9.802l129.571-84.39c13.627-8.845,17.213-27.97,7.89-41.836L339.469,374.245
	c-2.869-4.542-7.172-8.367-11.953-10.758l-48.53-24.384c-9.562-4.781-20.798-4.303-29.405,1.435l-19.603,12.909l-4.781-7.172
	c21.516-13.626,38.728-33.229,49.725-56.658l285.201-16.734c21.994-1.195,38.729-19.603,38.25-41.836v-2.63
	C597.896,206.185,580.205,187.776,558.45,186.342z M272.531,396.239c12.192,18.407,7.172,43.031-10.758,54.745
	c-18.169,11.714-42.314,6.216-54.506-12.432c-6.215-9.562-8.367-20.798-5.499-31.316l6.216,9.562
	c8.367,12.67,24.862,16.495,37.055,8.605c12.431-8.128,15.539-24.623,7.172-37.293l-6.216-9.562
	C256.992,380.222,266.315,386.438,272.531,396.239z M169.017,228.417c0.239,8.367-1.434,16.256-5.259,23.667l-16.017-24.624
	c-8.367-12.67-24.624-16.495-37.055-8.606c-12.431,8.128-15.539,24.624-7.172,37.294l16.017,24.862c-0.956,0.239-1.195,0-1.673,0
	c-28.927,0-52.833-23.906-53.55-53.072c-0.478-29.166,22.233-52.833,51.398-52.833C144.633,175.345,168.3,199.251,169.017,228.417z"
	/>
</svg>
