<?xml version="1.0" encoding="utf-8"?>
<!-- Generator: Adobe Illustrator 16.0.0, SVG Export Plug-In . SVG Version: 6.00 Build 0)  -->
<!DOCTYPE svg PUBLIC "-//W3C//DTD SVG 1.1//EN" "http://www.w3.org/Graphics/SVG/1.1/DTD/svg11.dtd">
<svg version="1.1" id="Layer_1" xmlns="http://www.w3.org/2000/svg" xmlns:xlink="http://www.w3.org/1999/xlink" x="0px" y="0px"
	 width="252px" height="274.04px" viewBox="0 0 252 274.04" enable-background="new 0 0 252 274.04" xml:space="preserve">
<g>
	<path id="BR-DF" fill="#89D1DC" stroke="#3ABCC6" stroke-width="2" d="M227.21,138.91l-14.69-0.021l-0.52-3.26l0.92-1.83l0.38-3.73
		l11.95,0.01l1.83,1.98l0.06,2.21l-0.59,1.19l-0.21,2.439L227.21,138.91z"/>
	<path id="BR-GO" fill="#89D1DC" stroke="#3ABCC6" stroke-width="2" d="M227.21,138.91l-0.87-1.011l0.21-2.439l0.59-1.19l-0.06-2.21
		l-1.83-1.98l-11.95-0.01l-0.38,3.73l-0.92,1.83l0.52,3.26L227.21,138.91L227.21,138.91L227.21,138.91L227.21,138.91l-0.53,1.521
		L226.99,142l-0.681,1.59l-1.04,1.25l-0.409,1.47l0.85,1.211l0.85,0.34l1.421,1.029l1.649,4.561v0.6l-2.32,2.711l-3.239,3.01
		l-0.431,2.14l1.091,1.11l0.899-0.471l1.58,0.57l0.47,0.609l0.181,1l-0.17,0.711l-0.73,0.899l-0.51,1.89l1.189,3.461l-3.09,2.06
		l-1.16,0.2l-0.859,0.9l-0.48,1.119l-4.89,2.74l-0.7-0.77l-4.35-1.86l-0.551,0.479l-0.579,0.09l-1.75,0.011l-1.48-0.28l-3.86,0.16
		l-2.01-0.891l-4.13,2.641l-2.91,2.92h-0.33l-1.31-1.42l-1.521-0.3l-3.189,1.64l-3.71-0.619l-2.48,0.959l-2.229,0.541l-1.41,2.1
		l-1.21,2.459l0.06,1l-0.84,1.301l-0.82,0.279l-0.84-0.159l-0.45,0.14l-0.939,0.74l-1.64,2.1l-0.57,1.9l0.56,0.609l-0.01,0.34
		l-0.36,0.23l-0.859-0.46l0,0l-0.24-0.45l-2.66-2.24l-3.149-0.609l-1.62-1.55l-1.9-0.431l-1.49-0.039l-3.35-1.34l-0.68-0.851
		l-3.07-1.56l-0.67-0.61l-1.44-0.71l-1.14-0.17l-2.7-1.68l-2.78,0.16l-3.8-0.701l-0.13-0.33l0.26-0.84l0.57-1.17l1.31-1.76
		l-0.079-0.42l-2.25-0.9l-1.141,0.67l-0.66-0.189l-0.279-0.41l-0.23-1.109l0.26-2.58L137.49,171l0,0l-0.95-2.2l-0.18-3.43
		l-1.41-2.189l-0.16-0.711l0.4-3.41l2.55-3.85l0.38-2.91l0.7-0.77l2.02-0.84l1.92-1.771l1.25-2.021l0.33-1.949l0.5-1.01l1.28-1.041
		l0.82-1.43l0.079-1.539l1.75-0.971l1.4-2.62l2.65-0.13l2.72-0.859l0.32-0.281l1.979-4.189l0.71-0.96l0.641-4.1l0.38-0.74l1.92-1.94
		l1.649-1.01l1.07-0.26l1.23,0.68l1.21-0.73l1.39-1.43l0.84-2.93l1.17-2.87l-0.01-0.8l-0.48-1.14l0.58-2.74l1.601-3.09l-0.12-5.18
		l1.21-0.78l1.03-2.63l2-3.17l0.39-1.07l-0.16-2.72l0.351-0.9l0.97-0.86l0.27-1.13l-0.08-0.63l0,0l0.341-0.45l0.199-1.88l0.66-1.23
		l1.811-2.09l0.56-0.3l-0.03,1.71l-1.22,1.88l-0.52,2.34l2.399,0.4l2.2,1.03l3.93,0.4l3.09,1.71l4.07,1.43l0.63-0.23l1.63-5.94
		l1.471-2.39l1.18-0.97l1.15,1.31l1.04,1.88l1.109,3.71l0.61,3.1l1.14,0.05l0.75-0.75l0.3-1l0.561-0.54l2.76,0.34l4.53-0.53
		l0.22,0.74l-0.56,1.56l3.13,1.47l3.35,0.68l0.69-0.08l0.51-3.3l0.55,0.03l1.51,2.62l0.46,0.24l1.78-0.9l2.521-2.08l4.529-1h1.551
		l2.56-1.1l1.74-1.34l5.359-1.42l0,0l2.721,2.46l0.02,0.38l-1.43,1.06l-0.48,2.52l0.101,0.33l1.63,0.84l-0.061,0.94l-0.229,0.38
		l-1.59,1.03l-1.19,3.83l-0.05,1.55l0.62,3.52l1.7,3.46l3.21,2.62l0.05,0.47l-0.72,1.42l-0.101,0.67l0.67,1.72l0.23,1.28l-0.25,0.77
		l-1.48,1.97l0,0l-1,1.01l-3.229-0.34l-0.9-1.76l-2.42-1.48L238.5,119l0.58,3.77l-0.57,0.54l-0.399,0.13l-2.78-1.14l-1.17,0.23
		l-0.37,0.28l-0.72,3.18l0.72,0.1l0.49,1.16l-0.57,0.94l-0.729,0.7l0.039,1.9l0.421,0.61l0.529,0.19l0.69,4.261l-0.53,0.529
		l-3.36,0.9l-2.289,1.51L227.21,138.91z"/>
	<path id="BR-MS" fill="#89D1DC" stroke="#3ABCC6" stroke-width="2" d="M169.45,204.85l-0.4,2.46l-0.28,0.4l-1.5,0.78l-1.319,0.04
		l-0.47,0.22l-1.221,1.03l-1.99,2.68l-0.729,0.65l-1.01,0.3l-0.62,1.68l-0.16,2.931l-2.59,3.64l-0.96,0.52l-0.23,0.38l0.311,1.931
		l-0.08,0.95l-1.21,2.34l-2,2.26l0.35,0.85l-0.28,1.21l-1.439,1.03l-0.4,1.21l-1.729,1.69l-1.26,2.439l-1.95,1.87l-7.561,4.53
		l-1.26,1.14l-0.74,1.54l-0.84,1.08l0,0l-5.41,2.271l-1.109,0.819l-0.931,2.33l0.021,1.15l-1.45,3.56l-0.67,0.681l-1.66,1.01
		l-1.11,0.32l-0.329,0.35l-1.57,7.92l-0.36,0.82l-2.38,1.56l0,0l-2.55-2.33l-3.41-1.89l-3.99,1.97l-0.68,0.75l-1.66,0.49l-2.58,0.43
		l-2.36-0.46l-1.01-0.649l-0.47-4.271l-0.32-0.7l-0.9-0.95l-0.23-2.47l0.51-1.34l-0.64-0.79l-0.09-0.439v-2.87l-0.89-1.971
		l-0.6-2.739L97,250.47l0.59-1.359l0.02-1.61l-1.57-1.09l-0.38-0.8l-0.16-2.16l-1.65-1.82l-2.17-0.26l-1.51,0.31l-1.83-0.29
		l-2.46-1.96l-0.56-1.489l-1.54,0.33l-2.17,2.739l-1-0.6l-1.72,0.81l-1.08,0.16l-1.74-0.689l-2.56-0.49l-3.46,0.229l-3.66-0.71
		l-0.48-0.91l-1.99-0.13l-0.89,0.521l-2.5-0.88l0.91-7.271l-0.43-2.38l0.6-1.42l0.98-1.46l0.6-6.03l-0.66-2.33l-0.05-1.729
		l-0.76-0.96l-0.43-0.09L60.8,215.3l-0.64-3.26l-0.79-1.87l-1.21-2.02l-0.35-1.83l4.03-2.3l0.76-0.881l-4.2-3.859l5.38-11.42
		l1.12-0.061l-0.28-2.13l-0.74-0.13l3.23-10.33l0.66-1.16l-3.09-5.85l0.03-1.91l0,0l0.7,0.2l1.02,1.1l2.15,1.521l5.62-1.971l2.05-2
		l2.02-2.949l0.09-1.17l1.4-1.451l2.59,0.031l1.56-0.221l0.77,0.34l1.66-0.51l1.35-1.25l2.02-0.49l1.27,0.2l0.76,1.149l2.79,1.25
		l2.62,0.471l0.65,0.35l0.27,0.86l0.78,1.021l3.03,1.16l1.26,1.109l1.24,0.57l4.52-0.631l1.26-0.799l0.49-0.851l1.43-0.61l2.44,0.07
		l1.59,1.04l0.3,1.37l0.24,0.25l0.989,0.04l2.13-0.88l1.011,0.06l5.62-6.01l1.34-0.13l-1.23,6.609l-1.8,0.7l-1.66,2.83l-0.189,0.46
		l0.149,0.53l1.3,0.11l1.74,1.27l4.62,0.27l0.57-0.569l2.66-0.08l0.869,0.08l1.171,0.569l1.55-0.31l0,0l0.189,1.771l-0.26,2.58
		l0.23,1.109l0.279,0.41l0.66,0.189l1.141-0.67l2.25,0.9l0.079,0.42l-1.31,1.76l-0.57,1.17l-0.26,0.84l0.13,0.33l3.8,0.701
		l2.78-0.16l2.7,1.68l1.14,0.17l1.44,0.71l0.67,0.61l3.07,1.56l0.68,0.851l3.35,1.34l1.49,0.039l1.9,0.431l1.62,1.55l3.149,0.609
		l2.66,2.24l0.24,0.45l0,0l-0.58,0.25l-0.99,4.181l0.59,3.21L169.45,204.85z"/>
	<path id="BR-MT" fill="#89D1DC" stroke="#3ABCC6" stroke-width="2" d="M17.46,101.09l1.47-1.43l4.11-2.57l0.52-2.45l1.43-3.78
		l0.93-1.08l1.64-0.53l0.43-0.41L28.57,88l0.52-2.25l1.66-2.01l0.56-2.24l0.07-1.71L30.8,78.3l0.04-2.05l-1.53-3.34l-0.9,0.03
		l-0.58-0.51l-0.43-3.25l0.14-1.32l1.36-1.08l1.4-1.75l0.17-0.75l-1.41-3.59l-1.07-0.43l-1.11-0.11l-3.5,0.09l-1.22-1.11l0.24-0.56
		L5.24,58.52l0.9-9l-1.5-2.75l-0.27-1.76l0.03-0.8l1-3.52l-0.38-1.93l0.94-1.67l-0.83-2.27l-0.15-1.39l-0.26-0.61l-0.78-0.47
		L3.88,32l1.29-4.99l0.76-1.42l-0.6-1.24l-1.4-0.97l0,0l47.85-0.32l1.21-0.73l1.18-5.22l1.38-4.22l-0.46-1.94l-0.66-1.37l-0.1-0.85
		l0.42-0.85l0.86-0.64l1.2-1.82l0.27-1.01l-0.34-0.84l0.06-0.76L57,2.2L58.18,1l0,0l1.17,1.08l2.45,4.06l0.4,1.76l1.37,3.96
		l1.32,1.93l0.77,1.62l-0.23,2.44l0.48,2.4l0.73,2.2l1.53,1.11l3,2.75l3.38,1.7l0.23,0.94l-0.04,1.1l0.23,0.49l0.95,0.4l0.82-0.17
		l1.63,0.45l0.54,0.72l0.2,1.08l0.35,0.32l1.37-0.45l3.69,1.49l34.04,2.42l62.971,3.48l0,0l-0.65,1.02l-0.56,1.89l-1.101,1.25
		l-0.439,3.14l-0.431,0.85l-0.369,0.27l-1.94,5.29l-0.54,2.97l-0.04,2.95l-1.88,5.99l0.06,0.86l1.391,1.34l-0.16,0.87l-0.82,0.89
		l-0.05,0.5l1.1,2.25l-0.47,3.31l0.01,1.57l0.521,0.58l0.439,3.05l-0.739,2.76l0.979,3.34l0.96,0.51l0.8,0.02l0,0l0.08,0.63
		l-0.27,1.13l-0.97,0.86l-0.351,0.9l0.16,2.72l-0.39,1.07l-2,3.17l-1.03,2.63l-1.21,0.78l0.12,5.18l-1.601,3.09l-0.58,2.74
		l0.48,1.14l0.01,0.8l-1.17,2.87l-0.84,2.93l-1.39,1.43l-1.21,0.73l-1.23-0.68l-1.07,0.26l-1.649,1.01l-1.92,1.94l-0.38,0.74
		l-0.641,4.1l-0.71,0.96l-1.979,4.189l-0.32,0.281l-2.72,0.859l-2.65,0.13l-1.4,2.62l-1.75,0.971l-0.079,1.539l-0.82,1.43
		l-1.28,1.041l-0.5,1.01l-0.33,1.949l-1.25,2.021l-1.92,1.771l-2.02,0.84l-0.7,0.77l-0.38,2.91l-2.55,3.85l-0.4,3.41l0.16,0.711
		l1.41,2.189l0.18,3.43l0.95,2.2l0,0l-1.55,0.31l-1.171-0.569l-0.869-0.08l-2.66,0.08l-0.57,0.569l-4.62-0.27l-1.74-1.27l-1.3-0.11
		l-0.149-0.53l0.189-0.46l1.66-2.83l1.8-0.7l1.23-6.609l-1.34,0.13l-5.62,6.01l-1.011-0.06l-2.13,0.88l-0.989-0.04l-0.24-0.25
		l-0.3-1.37l-1.59-1.04l-2.44-0.07l-1.43,0.61l-0.49,0.851l-1.26,0.799l-4.52,0.631l-1.24-0.57l-1.26-1.109l-3.03-1.16l-0.78-1.021
		l-0.27-0.86l-0.65-0.35l-2.62-0.471l-2.79-1.25l-0.76-1.149l-1.27-0.2l-2.02,0.49l-1.35,1.25l-1.66,0.51l-0.77-0.34l-1.56,0.221
		l-2.59-0.031l-1.4,1.451l-0.09,1.17l-2.02,2.949l-2.05,2l-5.62,1.971l-2.15-1.521l-1.02-1.1l-0.7-0.2l0,0l-0.66-0.67l-0.32-0.801
		l0.54-0.709l-2.44-2.15l-1.28,0.63l-0.52-0.05l-1.17-0.68l-0.45-0.7l-2.02-1.41l-1.89-0.76l-0.3-0.32l-0.3-1.12l-0.23-2.93
		l-0.61-1.77l-0.19-3.66l0.88-1.641l1.14-1.09l0.34-1.779l-0.05-1.891l-0.96,0.061l-0.4,0.6l-0.38,0.16l-26.86-1.08l-1.05-12.65
		l-5.37-6.13l4.88-0.06l-0.35-7.55l-2.64-5.32l-0.49-1.97l0.26-1.06l0.61-0.55l0.65-1.28l-1.44-2.93l-3.11-1.04L17.46,101.09z"/>
</g>
</svg>
