<?xml version="1.0" encoding="utf-8"?>
<!-- Generator: Adobe Illustrator 16.0.0, SVG Export Plug-In . SVG Version: 6.00 Build 0)  -->
<!DOCTYPE svg PUBLIC "-//W3C//DTD SVG 1.1//EN" "http://www.w3.org/Graphics/SVG/1.1/DTD/svg11.dtd">
<svg version="1.1" id="Layer_1" xmlns="http://www.w3.org/2000/svg" xmlns:xlink="http://www.w3.org/1999/xlink" x="0px" y="0px"
	 width="602.572px" height="742.962px" viewBox="0 0 602.572 742.962" enable-background="new 0 0 602.572 742.962"
	 xml:space="preserve">
<path fill="#D9D3C6" d="M130.158,3.85L12.928,121.08L306.001,414.15l293.071-293.072L481.843,3.85L306.001,179.694L130.158,3.85z"/>
<path fill="#D9D3C6" d="M130.158,324.85L12.928,442.08l293.073,293.07l293.071-293.072L481.843,324.85L306.001,500.693
	L130.158,324.85z"/>
</svg>
